linear model
…
same question about room type, stars, and we want to take a look into neiborhood

nyc_airbnb %>%
  filter(borough == "Manhattan") %>%#only interested in manhattan
    nest(data = -neighborhood) %>% #leave out term neighborhood
  mutate(
    models = map(data, ~lm(price ~ stars + room_type, data = .x)), #giving lm
    results = map(models, broom::tidy))%>% #tidy lm
  select(-data,-models) %>%
  unnest(results) %>%
  #fit linear models to each neighborhood
  filter(str_detect(term,"room_type")) #whats matter with room type across all of these things

## # A tibble: 59 x 6
##    neighborhood      term                  estimate std.error statistic  p.value
##    <chr>             <chr>                    <dbl>     <dbl>     <dbl>    <dbl>
##  1 Battery Park City room_typePrivate room   -126.      27.6      -4.56 8.11e- 5
##  2 Battery Park City room_typeShared room    -160.      56.3      -2.84 7.96e- 3
##  3 Chinatown         room_typePrivate room   -109.      11.5      -9.52 1.03e-18
##  4 Chinatown         room_typeShared room    -143.      93.2      -1.54 1.25e- 1
##  5 Chelsea           room_typePrivate room   -133.      12.7     -10.5  2.13e-24
##  6 Chelsea           room_typeShared room    -153.      36.2      -4.24 2.49e- 5
##  7 Civic Center      room_typePrivate room    -95.3     28.9      -3.30 3.26e- 3
##  8 East Harlem       room_typePrivate room   -116.      26.1      -4.43 1.08e- 5
##  9 East Harlem       room_typeShared room    -144.      55.9      -2.57 1.04e- 2
## 10 East Village      room_typePrivate room   -113.       7.75    -14.6  4.70e-45
## #  with 49 more rows
…
