simulation
…
suppose we repeat this process, what the distribution of sampele mean and standard deviation will look like

lets simulate a lot

doing a for loop

output = vector("list", length = 100)

for (i in 1:100) {
  output[[i]] = sim_mean_sd(n = 30)
}

bind_rows(output) #bind each list into a row, important!!!!

## # A tibble: 100 x 2
##    mu_hat sigma_hat
##     <dbl>     <dbl>
##  1   1.24      3.65
##  2   2.47      2.47
##  3   1.82      4.00
##  4   2.37      3.09
##  5   1.81      2.67
##  6   2.30      2.97
##  7   1.98      2.93
##  8   2.22      3.41
##  9   2.19      2.95
## 10   1.48      2.54
## #  with 90 more rows
…
