try
…
problem 6

VoteByMail %>%
  group_by(`Ballot Sent Date`) %>%
  summarise(n=n()) 

## `summarise()` ungrouping output (override with `.groups` argument)

## # A tibble: 36 x 2
##    `Ballot Sent Date`     n
##    <date>             <int>
##  1 2020-09-18           448
##  2 2020-09-21             4
##  3 2020-09-24           792
##  4 2020-09-25           639
##  5 2020-09-28           654
##  6 2020-09-29           526
##  7 2020-09-30           489
##  8 2020-10-01           526
##  9 2020-10-02         23717
## 10 2020-10-05           441
## #  with 26 more rows

VoteByMail %>%
  group_by(`Ballot Received Date`) %>%
  summarise(n=n()) 

## `summarise()` ungrouping output (override with `.groups` argument)

## # A tibble: 35 x 2
##    `Ballot Received Date`     n
##    <date>                 <int>
##  1 2020-09-24               791
##  2 2020-09-25               629
##  3 2020-09-28               654
##  4 2020-09-29               525
##  5 2020-09-30               471
##  6 2020-10-01               464
##  7 2020-10-02               537
##  8 2020-10-04                 2
##  9 2020-10-05               475
## 10 2020-10-06               914
## #  with 25 more rows

VoteByMail %>%
  group_by(`Ballot Req Date`) %>%
  summarise(n=n()) 

## `summarise()` ungrouping output (override with `.groups` argument)

## # A tibble: 164 x 2
##    `Ballot Req Date`     n
##    <date>            <int>
##  1 0200-09-02            1
##  2 2020-04-21            3
##  3 2020-04-24            1
##  4 2020-04-30            1
##  5 2020-05-05            2
##  6 2020-05-07            1
##  7 2020-05-12            1
##  8 2020-05-14            1
##  9 2020-05-29            1
## 10 2020-05-30            3
## #  with 154 more rows
…
